{
    "id": "ORD-VOWBGC4Z7FVS",
    "ownId": "id_QRA4111130193012",
    "status": "REVERTED",
    "platform": "V2",
    "createdAt": "2018-08-10T10:39:43.000-03",
    "updatedAt": "2018-08-28T22:20:42.000-03",
    "amount": {
        "paid": 0,
        "total": 4650,
        "fees": 0,
        "refunds": 4650,
        "liquid": 0,
        "otherReceivers": 0,
        "currency": "BRL",
        "subtotals": {
            "shipping": 2340,
            "addition": 0,
            "discount": 0,
            "items": 2310
        }
    },
    "items": [{
        "product": "calça-adventure",
        "price": 2310,
        "detail": "Calça para corrida",
        "quantity": 1,
        "category": "APPAREL_AND_ACCESSORIES"
    }],
    "customer": {
        "id": "CUS-R3CQ8HAAGR1G",
        "ownId": "ff1230913131231",
        "fullname": "Jessica Andrade",
        "createdAt": "2018-08-10T10:31:47.000-03",
        "updatedAt": "2018-08-10T10:39:43.000-03",
        "birthDate": "1991-02-21",
        "email": "jessica@email.com",
        "fundingInstrument": {
            "creditCard": {
                "id": "CRC-PK7JHZ7XMMDP",
                "brand": "MASTERCARD",
                "first6": "555566",
                "last4": "8884",
                "store": true
            },
            "method": "CREDIT_CARD"
        },
        "phone": {
            "countryCode": "55",
            "areaCode": "11",
            "number": "22226842"
        },
        "taxDocument": {
            "type": "CPF",
            "number": "12413440025"
        },
        "shippingAddress": {
            "zipCode": "01230000",
            "street": "R. Albuquerque Lins",
            "streetNumber": "12",
            "city": "São Paulo",
            "district": "Santa Cecilia",
            "state": "SP",
            "country": "BRA"
        },
        "_links": {
            "self": {
                "href": "https://sandbox.moip.com.br/v2/customers/CUS-R3CQ8HAAGR1G"
            },
            "hostedAccount": {
                "redirectHref": "https://hostedaccount-sandbox.moip.com.br?token=81ebf3de-cfc0-4e08-8e53-56e94c0f528c&id=CUS-R3CQ8HAAGR1G&mpa=MPA-C4DD7D666638"
            }
        },
        "fundingInstruments": [{
            "creditCard": {
                "id": "CRC-PK7JHZ7XMMDP",
                "brand": "MASTERCARD",
                "first6": "555566",
                "last4": "8884",
                "store": true
            },
            "method": "CREDIT_CARD"
        }]
    },
    "payments": [{
        "id": "PAY-RN394XBNH2BD",
        "status": "REFUNDED",
        "delayCapture": false,
        "amount": {
            "total": 4650,
            "gross": 4650,
            "fees": 580,
            "refunds": 4070,
            "liquid": 0,
            "currency": "BRL"
        },
        "installmentCount": 4,
        "fundingInstrument": {
            "creditCard": {
                "id": "CRC-PK7JHZ7XMMDP",
                "brand": "MASTERCARD",
                "first6": "555566",
                "last4": "8884",
                "store": true,
                "holder": {
                    "birthdate": "1980-12-12",
                    "birthDate": "1980-12-12",
                    "taxDocument": {
                        "type": "CPF",
                        "number": "12413440025"
                    },
                    "fullname": "Jessica Andrade"
                }
            },
            "method": "CREDIT_CARD"
        },
        "acquirerDetails": {
            "authorizationNumber": "123456",
            "taxDocument": {
                "type": "CNPJ",
                "number": "01027058000191"
            }
        },
        "fees": [{
            "type": "TRANSACTION",
            "amount": 324
        }, {
            "type": "PRE_PAYMENT",
            "amount": 256
        }],
        "refunds": [{
            "id": "REF-JETNNOQ4NCYI",
            "status": "COMPLETED",
            "events": [{
                "type": "REFUND.COMPLETED",
                "createdAt": "2018-08-28T22:20:42.000-03"
            }, {
                "type": "REFUND.REQUESTED",
                "createdAt": "2018-08-28T22:20:42.000-03"
            }],
            "amount": {
                "total": 4650,
                "fees": 0,
                "currency": "BRL"
            },
            "receiversDebited": [{
                "amount": 4070,
                "moipAccount": "MPA-C4DD7D666638"
            }],
            "type": "FULL",
            "refundingInstrument": {
                "creditCard": {
                    "brand": "MASTERCARD",
                    "first6": "555566",
                    "last4": "8884",
                    "store": true
                },
                "method": "CREDIT_CARD"
            },
            "createdAt": "2018-08-28T22:20:42.000-03",
            "_links": {
                "self": {
                    "href": "https://sandbox.moip.com.br/v2/refunds/REF-JETNNOQ4NCYI"
                },
                "order": {
                    "href": "https://sandbox.moip.com.br/v2/orders/ORD-VOWBGC4Z7FVS",
                    "title": "ORD-VOWBGC4Z7FVS"
                },
                "payment": {
                    "href": "https://sandbox.moip.com.br/v2/payments/PAY-RN394XBNH2BD",
                    "title": "PAY-RN394XBNH2BD"
                }
            }
        }],
        "events": [{
            "type": "PAYMENT.REFUNDED",
            "createdAt": "2018-08-28T22:20:42.000-03"
        }, {
            "type": "PAYMENT.SETTLED",
            "createdAt": "2018-08-24T00:24:25.000-03"
        }, {
            "type": "PAYMENT.AUTHORIZED",
            "createdAt": "2018-08-10T10:40:04.000-03"
        }, {
            "type": "PAYMENT.IN_ANALYSIS",
            "createdAt": "2018-08-10T10:40:04.000-03"
        }, {
            "type": "PAYMENT.CREATED",
            "createdAt": "2018-08-10T10:40:03.000-03"
        }],
        "receivers": [{
            "moipAccount": {
                "id": "MPA-C4DD7D666638",
                "login": "moip-test-developer@moip.com.br",
                "fullname": "Moip Developer"
            },
            "type": "PRIMARY",
            "amount": {
                "total": 4650,
                "currency": "BRL",
                "fees": 0,
                "refunds": 4650
            },
            "feePayor": true
        }],
        "_links": {
            "self": {
                "href": "https://sandbox.moip.com.br/v2/payments/PAY-RN394XBNH2BD"
            },
            "order": {
                "href": "https://sandbox.moip.com.br/v2/orders/ORD-VOWBGC4Z7FVS",
                "title": "ORD-VOWBGC4Z7FVS"
            }
        },
        "createdAt": "2018-08-10T10:40:03.000-03",
        "updatedAt": "2018-08-28T22:20:42.000-03"
    }],
    "escrows": [],
    "refunds": [{
        "id": "REF-JETNNOQ4NCYI",
        "status": "COMPLETED",
        "events": [{
            "type": "REFUND.COMPLETED",
            "createdAt": "2018-08-28T22:20:42.000-03"
        }, {
            "type": "REFUND.REQUESTED",
            "createdAt": "2018-08-28T22:20:42.000-03"
        }],
        "amount": {
            "total": 4650,
            "fees": 0,
            "currency": "BRL"
        },
        "receiversDebited": [{
            "amount": 4070,
            "moipAccount": "MPA-C4DD7D666638"
        }],
        "type": "FULL",
        "refundingInstrument": {
            "creditCard": {
                "brand": "MASTERCARD",
                "first6": "555566",
                "last4": "8884",
                "store": true
            },
            "method": "CREDIT_CARD"
        },
        "createdAt": "2018-08-28T22:20:42.000-03",
        "_links": {
            "self": {
                "href": "https://sandbox.moip.com.br/v2/refunds/REF-JETNNOQ4NCYI"
            },
            "order": {
                "href": "https://sandbox.moip.com.br/v2/orders/ORD-VOWBGC4Z7FVS",
                "title": "ORD-VOWBGC4Z7FVS"
            },
            "payment": {
                "href": "https://sandbox.moip.com.br/v2/payments/PAY-RN394XBNH2BD",
                "title": "PAY-RN394XBNH2BD"
            }
        }
    }],
    "entries": [{
        "id": "ENT-A61ZY9FCFRM1",
        "event": "PAY-RN394XBNH2BD",
        "status": "SETTLED",
        "operation": "CREDIT",
        "amount": {
            "total": 4650,
            "fee": 580,
            "liquid": 4070,
            "currency": "BRL"
        },
        "description": "Cartao de credito - Pedido PAY-RN394XBNH2BD",
        "occurrence": {
            "in": "1",
            "to": "1"
        },
        "scheduledFor": "2018-08-24T10:40:04.000-03",
        "settledAt": "2018-08-24T00:21:15.000-03",
        "updatedAt": "2018-08-24T00:21:15.000-03",
        "createdAt": "2018-08-10T10:40:05.000-03",
        "_links": {
            "payment": {
                "href": "https://sandbox.moip.com.br/v2/payments/PAY-RN394XBNH2BD",
                "title": "PAY-RN394XBNH2BD"
            },
            "order": {
                "href": "https://sandbox.moip.com.br/v2/orders/ORD-VOWBGC4Z7FVS",
                "title": "ORD-VOWBGC4Z7FVS"
            },
            "self": {
                "href": "https://sandbox.moip.com.br/v2/entries/ENT-A61ZY9FCFRM1"
            }
        }
    }, {
        "id": "ENT-X9ZKOH17OA6T",
        "event": "REF-JETNNOQ4NCYI",
        "status": "SETTLED",
        "operation": "DEBIT",
        "amount": {
            "total": -4070,
            "fee": 0,
            "liquid": -4070,
            "currency": "BRL"
        },
        "description": "Reembolso do Pagamento PAY-RN394XBNH2BD",
        "occurrence": {
            "in": "1",
            "to": "1"
        },
        "scheduledFor": "2018-08-24T10:40:04.000-03",
        "settledAt": "2018-08-28T22:20:42.000-03",
        "updatedAt": "2018-08-28T22:20:42.000-03",
        "createdAt": "2018-08-28T22:20:42.000-03",
        "_links": {
            "payment": {
                "href": "https://sandbox.moip.com.br/v2/payments/PAY-RN394XBNH2BD",
                "title": "PAY-RN394XBNH2BD"
            },
            "order": {
                "href": "https://sandbox.moip.com.br/v2/orders/ORD-VOWBGC4Z7FVS",
                "title": "ORD-VOWBGC4Z7FVS"
            },
            "self": {
                "href": "https://sandbox.moip.com.br/v2/entries/ENT-X9ZKOH17OA6T"
            }
        }
    }],
    "events": [{
        "type": "ORDER.REVERTED",
        "createdAt": "2018-08-28T22:20:42.000-03",
        "description": ""
    }, {
        "type": "ORDER.PAID",
        "createdAt": "2018-08-10T10:40:04.000-03",
        "description": ""
    }, {
        "type": "ORDER.CREATED",
        "createdAt": "2018-08-10T10:39:43.000-03",
        "description": ""
    }],
    "receivers": [{
        "moipAccount": {
            "id": "MPA-C4DD7D666638",
            "login": "moip-test-developer@moip.com.br",
            "fullname": "Moip Developer"
        },
        "type": "PRIMARY",
        "amount": {
            "total": 4650,
            "currency": "BRL",
            "fees": 0,
            "refunds": 4650
        },
        "feePayor": true
    }],
    "shippingAddress": {
        "zipCode": "01230000",
        "street": "R. Albuquerque Lins",
        "streetNumber": "12",
        "city": "São Paulo",
        "district": "Santa Cecilia",
        "state": "SP",
        "country": "BRA"
    },
    "_links": {
        "self": {
            "href": "https://sandbox.moip.com.br/v2/orders/ORD-VOWBGC4Z7FVS"
        },
        "checkout": {
            "payCheckout": {
                "redirectHref": "https://checkout-new-sandbox.moip.com.br?token=06c38eea-fd27-40c4-b02b-e8244e106b66&id=ORD-VOWBGC4Z7FVS"
            },
            "payCreditCard": {
                "redirectHref": "https://checkout-new-sandbox.moip.com.br?token=06c38eea-fd27-40c4-b02b-e8244e106b66&id=ORD-VOWBGC4Z7FVS&payment-method=credit-card"
            },
            "payBoleto": {
                "redirectHref": "https://checkout-new-sandbox.moip.com.br?token=06c38eea-fd27-40c4-b02b-e8244e106b66&id=ORD-VOWBGC4Z7FVS&payment-method=boleto"
            },
            "payOnlineBankDebitItau": {
                "redirectHref": "https://checkout-sandbox.moip.com.br/debit/itau/ORD-VOWBGC4Z7FVS"
            }
        }
    }
}
